**************************************************************
Sorry!!!
Fail
**************************************************************
Here are you marks
Subject		Marks
----------------------------
English : 	88
Telugu  : 	80
Hindi   : 	36
Science : 	72
Maths   : 	2
Social  : 	23
